State,Year,Support_Pct
AL,1995,17
AL,2010,26
AK,1995,23
AK,2010,45
AZ,1995,25
AZ,2010,48
AR,1995,17
AR,2010,29
CA,1995,32
CA,2010,56
CO,1995,27
CO,2010,52
CT,1995,34
CT,2010,57
DE,1995,29
DE,2010,50
FL,1995,26
FL,2010,41
GA,1995,21
GA,2010,34
HI,1995,28
HI,2010,54
ID,1995,17
ID,2010,33
IL,1995,26
IL,2010,48
IN,1995,22
IN,2010,37
IA,1995,24
IA,2010,44
KS,1995,24
KS,2010,37
KY,1995,18
KY,2010,31
LA,1995,23
LA,2010,36
ME,1995,29
ME,2010,55
MD,1995,29
MD,2010,51
MA,1995,33
MA,2010,62
MI,1995,26
MI,2010,46
MN,1995,26
MN,2010,47
MS,1995,17
MS,2010,27
MO,1995,26
MO,2010,37
MT,1995,23
MT,2010,45
NE,1995,20
NE,2010,35
NV,1995,26
NV,2010,50
NH,1995,30
NH,2010,55
NJ,1995,27
NJ,2010,55
NM,1995,24
NM,2010,49
NY,1995,36
NY,2010,58
NC,1995,21
NC,2010,36
ND,1995,22
ND,2010,38
OH,1995,24
OH,2010,45
OK,1995,16
OK,2010,26
OR,1995,26
OR,2010,52
PA,1995,27
PA,2010,51
RI,1995,34
RI,2010,60
SC,1995,21
SC,2010,32
SD,1995,23
SD,2010,38
TN,1995,19
TN,2010,31
TX,1995,24
TX,2010,35
UT,1995,12
UT,2010,22
VT,1995,32
VT,2010,59
VA,1995,24
VA,2010,42
WA,1995,29
WA,2010,54
WV,1995,21
WV,2010,41
WI,1995,26
WI,2010,44
WY,1995,19
WY,2010,37
