State,Year,CI_Lower,Support_Pct,CI_Upper
DC,2004,38,48,58
DC,2012,54,62,69
DC,2014,73,86,93
MA,2004,42,45,48
MA,2012,53,57,62
MA,2014,66,73,80
CT,2004,36,39,43
CT,2012,51,57,63
CT,2014,56,65,74
VT,2004,36,42,47
VT,2012,47,54,61
VT,2014,66,75,84
HI,2004,30,37,43
HI,2012,46,54,60
HI,2014,62,73,82
OR,2004,34,37,40
OR,2012,49,54,58
OR,2014,51,60,68
NY,2004,41,42,44
NY,2012,50,53,56
NY,2014,66,71,76
ME,2004,34,38,43
ME,2012,47,53,58
ME,2014,61,70,81
WA,2004,35,38,41
WA,2012,48,52,56
WA,2014,58,65,71
NJ,2004,36,38,41
NJ,2012,48,51,56
NJ,2014,62,69,76
RI,2004,38,42,44
RI,2012,47,50,56
RI,2014,64,74,84
CO,2004,32,35,38
CO,2012,46,50,54
CO,2014,53,61,70
CA,2004,39,41,42
CA,2012,47,50,52
CA,2014,66,70,74
DE,2004,29,34,39
DE,2012,44,49,55
DE,2014,57,67,77
MD,2004,30,33,36
MD,2012,43,48,52
MD,2014,59,67,74
NV,2004,32,36,40
NV,2012,42,47,53
NV,2014,53,63,73
NH,2004,33,38,43
NH,2012,41,47,53
NH,2014,56,65,75
WI,2004,29,32,35
WI,2012,43,47,51
WI,2014,58,67,76
NM,2004,34,38,42
NM,2012,41,47,52
NM,2014,49,59,69
PA,2004,31,32,34
PA,2012,44,47,50
PA,2014,53,59,65
IL,2004,30,32,34
IL,2012,43,47,50
IL,2014,56,63,69
MT,2004,25,29,34
MT,2012,40,46,53
MT,2014,40,50,60
AZ,2004,32,35,38
AZ,2012,42,46,51
AZ,2014,49,57,65
AK,2004,27,33,38
AK,2012,38,46,53
AK,2014,43,54,66
SD,2004,20,24,29
SD,2012,39,45,52
SD,2014,41,52,64
IA,2004,25,29,32
IA,2012,40,45,50
IA,2014,51,60,70
MI,2004,28,30,32
MI,2012,40,43,47
MI,2014,49,57,64
VA,2004,24,27,29
VA,2012,40,43,47
VA,2014,44,52,59
MN,2004,29,32,35
MN,2012,39,43,47
MN,2014,56,64,72
FL,2004,29,30,32
FL,2012,40,42,45
FL,2014,50,56,62
WY,2004,21,26,31
WY,2012,34,41,48
WY,2014,28,41,54
ID,2004,22,26,30
ID,2012,35,41,47
ID,2014,34,44,55
KS,2004,22,25,29
KS,2012,36,41,46
KS,2014,41,50,61
OH,2004,27,29,31
OH,2012,38,41,44
OH,2014,47,54,60
IN,2004,23,26,28
IN,2012,37,40,44
IN,2014,42,50,57
ND,2004,19,23,28
ND,2012,34,40,45
ND,2014,35,47,57
NC,2004,20,23,25
NC,2012,35,38,41
NC,2014,39,46,52
NE,2004,20,24,28
NE,2012,32,38,44
NE,2014,39,50,62
MO,2004,24,27,29
MO,2012,33,37,42
MO,2014,49,58,65
GA,2004,20,22,25
GA,2012,33,37,41
GA,2014,35,43,50
UT,2004,22,25,29
UT,2012,30,36,42
UT,2014,28,39,50
MS,2004,16,18,21
MS,2012,30,34,39
MS,2014,27,39,49
SC,2004,18,20,23
SC,2012,30,34,39
SC,2014,42,50,60
OK,2004,16,18,21
OK,2012,30,34,38
OK,2014,32,40,51
TX,2004,23,24,26
TX,2012,31,33,36
TX,2014,45,51,56
KY,2004,19,21,24
KY,2012,29,33,37
KY,2014,37,46,55
TN,2004,16,18,20
TN,2012,28,32,36
TN,2014,28,36,44
WV,2004,18,21,25
WV,2012,27,32,37
WV,2014,27,36,45
AL,2004,14,16,18
AL,2012,28,32,36
AL,2014,27,35,44
AR,2004,15,18,21
AR,2012,26,31,36
AR,2014,30,40,49
LA,2004,18,21,23
LA,2012,26,31,34
LA,2014,37,44,53
